{
    "prepare_queue": {
        "installed": [],
        "uninstalled": []
    },
    "config_munge": {
        "files": {
            "framework": {
                "parents": {
                    "libsqlite3.dylib": [
                        {
                            "xml": false,
                            "count": 1
                        }
                    ],
                    "Social.framework": [
                        {
                            "xml": true,
                            "count": 1
                        }
                    ],
                    "Accounts.framework": [
                        {
                            "xml": true,
                            "count": 1
                        }
                    ],
                    "Security.framework": [
                        {
                            "xml": true,
                            "count": 1
                        }
                    ]
                }
            },
            "config.xml": {
                "parents": {
                    "/*": [
                        {
                            "xml": "<feature name=\"FacebookConnectPlugin\"><param name=\"ios-package\" value=\"FacebookConnectPlugin\" /><param name=\"onload\" value=\"true\" /></feature>",
                            "count": 1
                        },
                        {
                            "xml": "<plugin name=\"FacebookConnectPlugin\" value=\"FacebookConnectPlugin\" />",
                            "count": 1
                        },
                        {
                            "xml": "<access origin=\"https://m.facebook.com\" />",
                            "count": 1
                        },
                        {
                            "xml": "<access origin=\"https://graph.facebook.com\" />",
                            "count": 1
                        },
                        {
                            "xml": "<access origin=\"https://api.facebook.com\" />",
                            "count": 1
                        },
                        {
                            "xml": "<access origin=\"https://*.fbcdn.net\" />",
                            "count": 1
                        },
                        {
                            "xml": "<access origin=\"https://*.akamaihd.net\" />",
                            "count": 1
                        }
                    ]
                }
            },
            "*-Info.plist": {
                "parents": {
                    "FacebookAppID": [
                        {
                            "xml": "<string>491591187686803</string>",
                            "count": 1
                        }
                    ],
                    "FacebookDisplayName": [
                        {
                            "xml": "<string>Frost</string>",
                            "count": 1
                        }
                    ],
                    "CFBundleURLTypes": [
                        {
                            "xml": "<array><dict><key>CFBundleURLSchemes</key><array><string>fb1490254971280435</string></array></dict></array>",
                            "count": 1
                        }
                    ]
                }
            }
        }
    },
    "installed_plugins": {
        "phonegap-facebook-plugin": {
            "APP_ID": "491591187686803",
            "APP_NAME": "Frost",
            "PACKAGE_NAME": "com.ionic-facebook-integration.app"
        },
        "cordova-plugin-whitelist": {
            "PACKAGE_NAME": "com.ionic-facebook-integration.app"
        },
        "cordova-plugin-splashscreen": {
            "PACKAGE_NAME": "com.ionic-facebook-integration.app"
        },
        "ionic-plugin-keyboard": {
            "PACKAGE_NAME": "com.ionic-facebook-integration.app"
        }
    },
    "dependent_plugins": {}
}